<?xml version="1.0" encoding="utf-8"?>
<!-- Generator: Adobe Illustrator 21.0.0, SVG Export Plug-In . SVG Version: 6.00 Build 0)  -->
<svg version="1.1"
	 id="svg1520" inkscape:version="0.92.2 (5c3e80d, 2017-08-06)" sodipodi:docname="folder.svg" xmlns:cc="http://creativecommons.org/ns#" xmlns:dc="http://purl.org/dc/elements/1.1/" xmlns:inkscape="http://www.inkscape.org/namespaces/inkscape" xmlns:rdf="http://www.w3.org/1999/02/22-rdf-syntax-ns#" xmlns:sodipodi="http://sodipodi.sourceforge.net/DTD/sodipodi-0.dtd" xmlns:svg="http://www.w3.org/2000/svg"
	 xmlns="http://www.w3.org/2000/svg" xmlns:xlink="http://www.w3.org/1999/xlink" x="0px" y="0px" viewBox="0 0 512 512"
	 style="enable-background:new 0 0 512 512;" xml:space="preserve">
<style type="text/css">
	.st0{fill:#228953;}
	.st1{fill:#4ED163;}
	.st2{display:none;}
	.st3{display:inline;fill:#2C739B;}
	.st4{display:inline;fill:#3498DB;}
	.st5{opacity:0.3;fill:#228953;enable-background:new    ;}
	.st6{fill:#29352E;}
</style>
<rect x="220.5" y="376.5" class="st0" width="67" height="13"/>
<rect x="79" y="128.5" class="st1" width="349.5" height="237"/>
<sodipodi:namedview  bordercolor="#666666" borderopacity="1.0" id="base" inkscape:current-layer="g3612-9" inkscape:cx="332.00912" inkscape:cy="282.93858" inkscape:document-units="mm" inkscape:pageopacity="0.0" inkscape:pageshadow="2" inkscape:showpageshadow="false" inkscape:window-height="1001" inkscape:window-maximized="1" inkscape:window-width="1920" inkscape:window-x="-9" inkscape:window-y="-9" inkscape:zoom="0.98994949" pagecolor="#ffffff" showgrid="false" units="px">
	</sodipodi:namedview>
<g>
	<g>
		<g transform="translate(0 -1028.4)">
			<g class="st2">
				<path class="st3" d="M91,1398.1c-19.1,0-34.7-15.5-34.7-34.7v-253.1c0-19.1,15.5-34.7,34.7-34.7h126.1l54.2,36.2h145.1
					c6.7,0,13.2,1.9,18.9,5.6c4.4,2.9,8.2,6.8,10.9,11.4c3.2,5.3,4.9,11.4,4.9,17.7v217c0,19.1-15.5,34.7-34.7,34.7L91,1398.1
					L91,1398.1z"/>
				<path class="st4" d="M216.7,1077.1l53.5,35.7l0.8,0.5h0.9h144.7c6.4,0,12.7,1.9,18,5.4c4.3,2.8,7.9,6.5,10.5,10.9
					c3,5.1,4.7,10.9,4.7,16.9v217c0,18.3-14.9,33.2-33.2,33.2H91c-18.3,0-33.2-14.9-33.2-33.2v-253.1c0-18.3,14.9-33.2,33.2-33.2
					h125.7 M217.6,1074.1H91c-20,0-36.2,16.3-36.2,36.2v253.1c0,19.9,16.2,36.2,36.2,36.2h325.5c20,0,36.2-16.3,36.2-36.2v-217
					c0-6.7-1.9-13-5.1-18.4c-2.8-4.8-6.8-8.8-11.4-11.9c-5.7-3.7-12.4-5.8-19.7-5.8H271.8L217.6,1074.1L217.6,1074.1z"/>
			</g>
		</g>
		<g>
			<g>
				<path class="st5" d="M369.3,361c-10.7-0.1-21.4-0.1-32.1-0.2c18.9-30,31.9-64.5,38.6-102.5c1.4-7.9,2.5-15.8,3.3-23.2l-0.2,0.1
					c-0.1,0.2-0.3,0.4-0.5,0.6c-0.3,0.4-0.7,0.8-1,1.3c-0.2,0.6-0.6,1.1-0.9,1.6c-0.1,0.2-0.3,0.4-0.4,0.7c-0.7,1-1.4,2.2-2.2,3.6
					c-0.2,0.3-0.4,0.7-0.7,1c-0.2,0.3-0.4,0.7-0.7,1c-0.3,0.7-0.7,1.4-1,2.1c-0.4,0.7-0.7,1.4-1,2.2c-0.3,0.3-0.7,0.7-0.8,1.1
					c-1.6-1.4-3-3.4-4.3-5.3c-0.7-1.1-1.4-2.1-2.2-3c-0.1,0.1-0.2,0.1-0.4,0.2c-0.1,0.1-0.2,0.1-0.3,0.2l0.2,0.8
					c0.3,1.1,0.5,2.3,1,3.4c1,2.8,2,5.3,3.1,7.7c0.3,1,0.1,1.8-0.1,2.7c-0.4,0.9-0.8,1.9-1.2,2.7c-0.4,0.9-0.7,1.8-1.1,2.7
					c-0.6,1.3-1.9,4.4-1.9,4.4c-0.3,0.7-0.5,1.5-0.8,2.3c-0.9,2.6-1.9,5.2-2.6,7.9l0,0c-0.1,0-0.1,0.1-0.1,0.1
					c-0.1,0.1-0.1,0.1-0.1,0.1c-0.1-0.2-0.2-0.4-0.4-0.7c-0.4-0.7-0.7-1.3-1.3-1.9c-0.4-0.8-1.1-1.6-1.8-2.3
					c-0.1-0.1-0.2-0.1-0.4-0.1c-0.1-0.1-0.3-0.1-0.4-0.1l0,0l-0.1,0.1c-0.1,0.3-0.3,0.7-0.1,0.8c0.4,2.5,1,5.2,1.6,7.9
					c0,0.3,0,0.5,0.1,0.7c1.9,3.6,0.1,9.8-1.5,15.3c-0.7,2.4-1.3,4.7-1.6,6.5c0,0.2-0.1,0.4-0.2,0.5c-0.1,0.1-0.1,0.2-0.1,0.3
					c-0.1-0.1-0.1-0.1-0.3-0.2c-0.2-0.1-0.5-0.2-0.6-0.3c-3.9-5.6-7.2-11.6-10.5-19c-0.7-1.6-1.2-3.3-1.7-4.9
					c-0.2-0.8-0.5-1.6-0.7-2.4c-0.1-0.5,0.2-1.3,0.5-1.9l0.1-0.3c0.1-0.4,0.4-0.8,0.7-1.2c0.2-0.4,0.5-0.8,0.7-1.3
					c1-1.8,1.8-3.4,2.6-5.3c0.6-2.2,1.5-4.4,3-6.8l-0.4-0.1c-0.7,1.1-1.7,1.9-2.7,2.6c-1.2,0.9-2.4,1.9-3.1,3.5
					c-0.1,0.4-0.5,0.7-1,1c-0.2,0.1-0.4,0.3-0.7,0.5c-0.3,0.2-0.5,0.4-0.7,0.4s-0.2-0.1-0.3-0.2c-0.1-0.1-0.1-0.4-0.1-0.6
					c-0.1-0.7-0.1-1.3-0.1-1.9c-0.1-1.3-0.1-2.6-0.4-3.8c-0.5-1.9,0.1-5.3,0.6-7.9c0.1-0.9,0.3-1.6,0.4-2.2c0-0.7,0-1.3,0.3-1.9
					c2.2-7.3,3.3-10.9,10.2-14.8c0.5-0.4,1.1-0.7,1.6-1c0.3-0.1,0.7-0.3,1-0.5c0.1-0.1,0.2-0.1,0.4-0.2c0.3-0.2,0.5-0.4,0.8-0.6
					c0.1-0.1,0.4-0.7,0.1-1c0-0.1-0.5-0.4-0.8-0.4c-1.8,0.5-3.3,1-4.9,1.6c-0.1,0-0.2,0-0.3,0c-0.3,0-0.4-0.1-0.5-0.2
					c-0.1-0.2-0.1-0.6,0.1-1c0.3-0.5,0.7-1,1-1.6c0.4-0.5,0.7-1,1-1.6c1.2-1,1.8-1.9,1.9-2.9c0.1-0.8-0.3-1.6-1-2.4
					c-0.3,0-0.6-0.1-0.8-0.1s-0.4-0.1-0.5-0.1c-1,0-1.9-0.1-2.7-0.1c-0.9-0.1-1.7-0.1-2.5-0.1c-0.4,0-0.9,0-1.3,0.1h-0.4
					c-3.1,0.1-6.4,0.3-9.6,0.7h-0.4c-2,0.1-4,0.3-6,0.4c-0.1,0-0.2,0-0.3,0c-0.3,0-0.5-0.1-0.6-0.2c-0.1-0.2-0.1-0.5,0.1-0.9
					c0.2-0.7,0.6-1.5,0.9-2.2c0.3-0.7,0.7-1.5,0.9-2.2c0.1-0.4,0.4-1,0.6-1.6c0.7-1.6,1.4-3.6,1.6-5.1c0-0.2-0.4-0.4-0.5-0.4
					c-0.3,0.1-0.5,0.4-0.8,0.6c-0.2,0.2-0.4,0.4-0.7,0.5c-1,1.1-1.9,2.3-3,3.6c-1.2,1.5-2.3,3-3.5,4.7c-0.7,1-1.5,2-2.2,3
					c-1.3,1.6-3.5,2.2-5.3,2.4c-3.7,0.7-6.8,1.3-10,2.2c-1.4,0.3-2.7,0.7-4.1,1c-1.3,0.3-2.7,0.7-4.1,1c-1.4,0.7-3,1-4.7,1
					c0.4-0.9,0.9-1.8,1.4-2.7c1.1-2.1,2.2-4.3,2.5-7c-0.4,0.1-0.7,0.3-0.9,0.4c-0.7,0.4-1.3,0.7-1.8,1.2c-3.3,3.7-6.6,7.1-9.9,10.5
					c-1.9,2.1-5.6,3.2-8.8,4.2c-1.1,0.4-2.2,0.7-3,1c-2.6,0.8-5,1.8-7.4,2.7l-0.1,0.1c-0.6,0.1-1.1,0.4-1.6,0.7
					c-0.5,0.2-1,0.5-1.6,0.7c-0.1,0.1-0.3,0.1-0.5,0.1c-0.1,0.1-0.3,0.1-0.5,0.1l0.1-1.1c1.2-3,2.6-5.8,3.9-8.3
					c0.2-0.6,0.5-1.2,0.7-1.8s0.5-1.2,0.7-1.8c0.8-1.6,1.7-3,2.7-4.6c2.6-5,6.2-9.7,10.5-14.2c1-1,2.4-1.3,3.6-1.5
					c3.6-0.3,7.1-0.8,10.5-1.3c1.4-0.1,2.7-0.2,4-0.4l1-0.1c0.7-0.1,1.4-0.4,2.2-0.7c0.3-0.1,0.7-0.3,1-0.4
					c-2.6-1.5-5.3-1.7-8.1-1.9c-2.2-0.1-4.3-0.4-6.5-1.1c4.5-3.5,8.3-6.1,12.1-8.1c1.9-1,3.6-1.8,5.4-2.6c4.6-2.2,9.6-3.5,14.4-4.6
					c0.2,0,0.4-0.1,0.7-0.1c0.9,0,1.8,0.2,2.7,0.7c1.6,0.9,3.3,1.6,4.9,2.3c0.8,0.4,1.6,0.7,2.4,1.1c0.4,0.2,1,0.4,1.4,0.7
					c1.5,0.7,2.8,1.5,4.3,2.1c0.7,0.1,1.3,0.1,2.2,0.1c0.2-0.4,0.2-0.7,0.1-1.1s-0.5-0.6-1-0.8c-1-0.8-2.1-1.6-3.1-2.4
					c-1.6-1.2-3.1-2.4-4.7-3.8c1.4-0.7,2.9-1.1,4.4-1.1c0.8,0,1.6,0.1,2.4,0.3h1.2c5.1,0,10.2,0.9,14.5,1.8c1,0.4,1.9,0.7,2.8,0.7
					c0.7,0,1.5-0.1,2.1-0.5c-0.1-1.9-1-3.2-2.8-4.2c0.1-0.1,0.1-0.3,0.1-0.4c0.9-0.1,1.7-0.4,2.6-0.6c1.1-0.2,2.1-0.4,3.1-0.7
					c0.5-0.1,1-0.1,1.4-0.2c0.4-0.1,0.9-0.1,1.4-0.2c0.4-0.1,0.5-0.9,0.5-1.2c0-0.2-0.5-0.7-0.8-0.7c-1.6-0.1-3.3-0.2-5-0.3
					s-3.3-0.1-5-0.3c-1,0-1.9-0.2-2.3-0.7c-1.2-1-2.3-2.2-3.4-3.3c-0.8-0.8-1.6-1.6-2.4-2.4c-0.7-0.6-1.3-1.1-2.1-1.6
					c-0.7-0.5-1.4-1-2-1.6c-0.4-0.3-1-0.7-1.5-1.1c-1.1-1-2.1-2-3.3-3.2c-0.6-0.6-1.2-1.2-1.9-1.9l0.4-0.1c1-0.3,1.8-0.5,2.4-0.5
					c0.4,0.1,0.9,0.2,1.3,0.2c1.1,0,2.1-0.5,2.8-1.5c0-1.6-8-2.4-11-2.7c-0.4-0.1-0.8-0.1-1-0.1c-0.2-0.1-0.4-0.1-0.6-0.1
					c-0.6-0.1-1.2-0.1-1.6-0.5c-2.6-2.4-5.7-4.2-8.7-6l-0.1-0.1c-1-0.7-1.9-1.4-2.9-2.2c-0.9-0.7-1.9-1.5-2.8-2.1
					c-0.1-0.1-0.2-0.3-0.4-0.5c-0.1-0.1-0.1-0.3-0.3-0.4c0.5-0.1,1-0.2,1.5-0.4c0.7-0.2,1.3-0.4,1.9-0.5l0.7-0.1
					c1.2-0.3,2.3-0.5,3.5-0.7c4.7-0.7,8.9-1,13-1c1.9,0,3.9,0.1,5.8,0.2c2.8,0.1,4.7,1.2,6.4,3.4c0.6,0.7,1.3,1.3,2,1.9
					c0.2,0.2,0.5,0.4,0.7,0.6c0.4,0.3,0.6,0.7,0.9,1c0.3,0.3,0.6,0.7,0.9,1c0.4,0.4,0.9,0.7,1.3,1.2c0.9,0.8,1.8,1.6,2.8,2.4
					c-0.1-0.6-0.3-1.2-0.5-1.8c-0.5-1.7-1.1-3.5-2.2-5c-0.1-0.1-0.2-0.4-0.3-0.6c-0.1-0.1-0.1-0.2-0.1-0.4c0.1,0,0.1,0,0.2,0
					c0.1,0,0.1,0,0.2,0c0.1,0,0.2,0,0.3,0c0.1,0,0.2,0,0.3,0.1c8.5,3,14.5,6,20.6,10.3c3.1,2.2,4.7,5.3,5,10.1c0,0.5,0,0.8,0.1,1.3
					c0,2.7,0.4,5,1.3,6.7c0.1,0.2,0.4,0.2,0.4,0.2c0.3-0.4,0.7-1.1,0.7-1.7c-0.3-1.8-0.3-3.6,0-5.2c0.1-0.7,0.4-1.2,0.5-1.6l0,0
					c0.1,0,0.3-0.1,0.3-0.1c0.2,0.3,0.4,0.6,0.7,0.9c0.3,0.3,0.6,0.6,0.8,0.9c0.1,0.1,0.2,0.4,0.4,0.5c0.3,0.3,0.5,0.7,0.7,1.1
					c4.6,6.9,7.8,13.7,9.8,20.8c0.1,0.5,0.3,1,0.5,1.5c0.3,0.9,0.7,1.3,1.3,1.3c0.4,0,0.9-0.2,1.5-0.6c0.4-0.4,0.7-0.7,1.1-1
					c1.6-1.5,3-2.8,4.7-4c2.3-1.7,5.2-3.5,8.2-5c1.6-1.8,3.5-2.7,5.4-2.7c0.3,0,0.6,0,0.9,0.1c-0.2,0.3-0.2,0.6-0.2,1
					c-1.3,1.4-1.6,2.9-1.3,4.7c0.3-0.1,0.5-0.1,0.7-0.2c0.4-0.1,0.7-0.2,1.1-0.5c0.5-0.5,1-1,1.4-1.6l0.4-0.4
					c0.3-0.5,0.8-1.2,1.3-1.8c0.2-0.3,0.4-0.6,0.6-0.9c0.4-0.6,0.8-1.2,1.3-1.6c2-1.9,5.5-2.9,10.1-3.1l-0.1,25.4
					c-0.7-0.4-1.6-0.8-2.4-1.2c-0.8-0.4-1.7-0.7-2.5-1.1s-1.6-0.6-2.5-0.8c-0.2-0.1-0.5-0.1-0.7-0.1c1.1,2.5,5.2,6.6,8.3,7.9v32.5
					c-0.4-0.2-0.9-0.5-1.3-0.8l-0.1-0.1c-1.3-0.8-2.6-1.6-3.9-2.4c-1.9-1.3-3.8-2.5-5.8-3.6c-0.4-0.1-0.8-0.3-1.1-0.5
					c-0.4-0.1-0.7-0.3-1.1-0.5c-1.3-0.5-2.5-1-3.8-1.5c-1.6-0.6-3.1-1.2-4.5-1.8c-0.8-0.3-1.6-0.7-2.3-1.1c-0.4-0.2-0.8-0.4-1.3-0.7
					c-2.4-0.9-4.9-1.9-7.4-3.2c0.8,2,1.8,3.9,2.7,5.9c-0.4,5.3-0.8,10.8-1.3,16c-0.8,11.6-1.7,23.7-3.3,35.5
					C388.3,311.8,380.8,337.8,369.3,361z"/>
			</g>
		</g>
	</g>
</g>
<g id="Livello_26">
	<path class="st6" d="M228,382.7c0-1.9,1.5-3.4,3.4-3.4h49.1c1.9,0,3.4,1.5,3.4,3.4c0,1.9-1.5,3.4-3.4,3.4h-49.1
		C229.5,386.1,228,384.6,228,382.7 M425.6,360.9H85V132.7h340.6L425.6,360.9L425.6,360.9z M493.3,384.4c0-5.1-4.1-9.2-9.2-9.2v-0.7
		h-48.6c2.5-1.1,4.2-3.6,4.2-6.5V125.6c0-3.9-3.2-7.1-7.1-7.1H77.9c-3.9,0-7.1,3.2-7.1,7.1V368c0,2.9,1.7,5.4,4.2,6.5H27.8v0.6
		c-5.1,0-9.2,4.1-9.2,9.2s4.1,9.2,9.2,9.2h456.4C489.2,393.5,493.3,389.4,493.3,384.4"/>
</g>
</svg>
