<?xml version="1.0" encoding="UTF-8" standalone="no"?>
<svg
   xmlns:dc="http://purl.org/dc/elements/1.1/"
   xmlns:cc="http://creativecommons.org/ns#"
   xmlns:rdf="http://www.w3.org/1999/02/22-rdf-syntax-ns#"
   xmlns:svg="http://www.w3.org/2000/svg"
   xmlns="http://www.w3.org/2000/svg"
   xmlns:sodipodi="http://sodipodi.sourceforge.net/DTD/sodipodi-0.dtd"
   xmlns:inkscape="http://www.inkscape.org/namespaces/inkscape"
   id="svg4379"
   width="200"
   height="200"
   version="1.1"
   viewBox="0 0 200 200"
   sodipodi:docname="logo-dark.svg"
   inkscape:version="0.92.4 (unknown)">
  <metadata
     id="metadata41">
    <rdf:RDF>
      <cc:Work
         rdf:about="">
        <dc:format>image/svg+xml</dc:format>
        <dc:type
           rdf:resource="http://purl.org/dc/dcmitype/StillImage" />
        <dc:title></dc:title>
      </cc:Work>
    </rdf:RDF>
  </metadata>
  <sodipodi:namedview
     pagecolor="#2e3236"
     bordercolor="#666666"
     borderopacity="1"
     objecttolerance="10"
     gridtolerance="10"
     guidetolerance="10"
     inkscape:pageopacity="0"
     inkscape:pageshadow="2"
     inkscape:window-width="1366"
     inkscape:window-height="702"
     id="namedview39"
     showgrid="false"
     inkscape:zoom="1.84375"
     inkscape:cx="-45.144333"
     inkscape:cy="79.141119"
     inkscape:window-x="0"
     inkscape:window-y="0"
     inkscape:window-maximized="1"
     inkscape:current-layer="svg4379">
    <inkscape:grid
       type="xygrid"
       id="grid839" />
  </sodipodi:namedview>
  <defs
     id="defs4381" />
  <path
     style="opacity:1;fill:#ffffff;fill-opacity:1;fill-rule:evenodd;stroke:none;stroke-width:24.00000191;stroke-linecap:round;stroke-linejoin:round;stroke-miterlimit:4;stroke-dasharray:none;stroke-opacity:0.29411765;paint-order:fill markers stroke"
     d="M 100,-1.6e-6 A 75.000002,75.000002 0 0 0 24.999998,75 75.000002,75.000002 0 0 0 100,150 75.000002,75.000002 0 0 0 175,75 75.000002,75.000002 0 0 0 100,-1.6e-6 Z m 0,5.4545456 A 69.545455,69.545455 0 0 1 169.54546,75 69.545455,69.545455 0 0 1 100,144.54546 69.545455,69.545455 0 0 1 30.454543,75 69.545455,69.545455 0 0 1 100,5.454544 Z"
     id="circle846"
     inkscape:connector-curvature="0" />
  <path
     style="fill:#ffffff;fill-opacity:1;stroke-width:4.20861292"
     d="m 79.317995,12.434314 c -1.21939,3.27875 -11.46452,30.81027 -11.5683,30.89151 -38.63095,30.379 -2.34432,73.196576 24.79526,71.658276 -25.72244,-20.813106 -26.66093,-41.974416 -21.59754,-70.948656 -0.11197,0.0836 10.75995,-31.23543 11.25192,-32.65277 -2.88134,1.05164 0,0 -2.88134,1.05164 z m 87.313485,71.73526 C 164.82277,81.983224 145.4235,58.522594 145.4016,58.391034 138.40838,9.7456544 83.184955,19.762374 70.947415,44.035444 c 30.885635,-11.87008 49.687875,-2.0968 72.248265,16.77527 -0.0153,-0.14035 22.56299,25.97258 22.95699,26.42832 -0.14178,0.62921 -0.29286,1.25629 -0.45314,1.88103 1.22367,-5.96363 2.08585,-14.16554 0.93195,-4.95049 z m -0.93195,4.95049 c 212.88577,174.917696 106.44289,87.458876 0,0 z m -22.50385,-28.30935 c -5.16312,32.68324 -23.02697,44.071316 -50.650725,54.173386 0.13024,0.0562 -35.36897,6.60069 -35.83342,6.68613 2.24868,1.98365 0,0 2.24868,1.98365 2.42293,-0.39376 34.44366,-5.599 34.56802,-5.54904 45.624135,18.26634 64.569435,-34.559406 49.667445,-57.294126 z"
     id="path101"
     inkscape:connector-curvature="0"
     sodipodi:nodetypes="ccccccccccccccccccccc" />
</svg>
