<?xml version="1.0" encoding="UTF-8" standalone="no"?>
<!-- Created with Inkscape (http://www.inkscape.org/) -->

<svg
   xmlns:dc="http://purl.org/dc/elements/1.1/"
   xmlns:cc="http://creativecommons.org/ns#"
   xmlns:rdf="http://www.w3.org/1999/02/22-rdf-syntax-ns#"
   xmlns:svg="http://www.w3.org/2000/svg"
   xmlns="http://www.w3.org/2000/svg"
   xmlns:xlink="http://www.w3.org/1999/xlink"
   xmlns:sodipodi="http://sodipodi.sourceforge.net/DTD/sodipodi-0.dtd"
   xmlns:inkscape="http://www.inkscape.org/namespaces/inkscape"
   width="144.35847mm"
   height="54.08427mm"
   viewBox="0 0 144.35847 54.08427"
   version="1.1"
   id="svg2166"
   inkscape:version="0.92.2 (5c3e80d, 2017-08-06)"
   sodipodi:docname="theng os Intro.svg"
   inkscape:export-filename="C:\Users\sheik\Documents\thengos\intro.png"
   inkscape:export-xdpi="300"
   inkscape:export-ydpi="300">
  <defs
     id="defs2160">
    <linearGradient
       id="linearGradient1006"
       inkscape:collect="always">
      <stop
         id="stop1002"
         offset="0"
         style="stop-color:#007c06;stop-opacity:1" />
      <stop
         id="stop1004"
         offset="1"
         style="stop-color:#00aa9a;stop-opacity:1" />
    </linearGradient>
    <linearGradient
       inkscape:collect="always"
       id="linearGradient858">
      <stop
         style="stop-color:#007c06;stop-opacity:1"
         offset="0"
         id="stop854" />
      <stop
         style="stop-color:#98ff01;stop-opacity:1"
         offset="1"
         id="stop856" />
    </linearGradient>
    <linearGradient
       inkscape:collect="always"
       xlink:href="#linearGradient858"
       id="linearGradient860"
       x1="-178.40158"
       y1="-99.658829"
       x2="-112.92054"
       y2="-21.8834"
       gradientUnits="userSpaceOnUse"
       gradientTransform="matrix(1.0598639,0,0,1.0598639,12.653178,-0.00178555)" />
    <linearGradient
       inkscape:collect="always"
       xlink:href="#linearGradient1006"
       id="linearGradient1000"
       x1="77.331505"
       y1="171.07974"
       x2="144.21321"
       y2="171.07974"
       gradientUnits="userSpaceOnUse"
       gradientTransform="matrix(1.1081622,0,0,1.1081622,7.4919498,-88.210638)" />
    <linearGradient
       inkscape:collect="always"
       xlink:href="#linearGradient1006"
       id="linearGradient849"
       gradientUnits="userSpaceOnUse"
       gradientTransform="matrix(1.1081622,0,0,1.1081622,24.714718,-82.319747)"
       x1="77.331505"
       y1="171.07974"
       x2="144.21321"
       y2="171.07974" />
    <linearGradient
       inkscape:collect="always"
       xlink:href="#linearGradient858"
       id="linearGradient859"
       gradientUnits="userSpaceOnUse"
       gradientTransform="matrix(1.0598639,0,0,1.0598639,-22.163722,-0.15382441)"
       x1="-178.40158"
       y1="-99.658829"
       x2="-112.92054"
       y2="-21.8834" />
    <linearGradient
       inkscape:collect="always"
       xlink:href="#linearGradient858"
       id="linearGradient864"
       gradientUnits="userSpaceOnUse"
       gradientTransform="matrix(0.3635381,0,0,0.3635381,142.54562,127.6903)"
       x1="-178.40158"
       y1="-99.658829"
       x2="-112.92054"
       y2="-21.8834" />
  </defs>
  <sodipodi:namedview
     id="base"
     pagecolor="#ffffff"
     bordercolor="#666666"
     borderopacity="1.0"
     inkscape:pageopacity="0.0"
     inkscape:pageshadow="2"
     inkscape:zoom="1.5173694"
     inkscape:cx="329.00193"
     inkscape:cy="14.769156"
     inkscape:document-units="mm"
     inkscape:current-layer="layer1"
     showgrid="false"
     inkscape:window-width="1920"
     inkscape:window-height="1001"
     inkscape:window-x="-9"
     inkscape:window-y="-9"
     inkscape:window-maximized="1"
     fit-margin-top="10"
     fit-margin-left="10"
     fit-margin-right="10"
     fit-margin-bottom="10"
     showguides="true"
     inkscape:guide-bbox="true"
     inkscape:showpageshadow="false" />
  <metadata
     id="metadata2163">
    <rdf:RDF>
      <cc:Work
         rdf:about="">
        <dc:format>image/svg+xml</dc:format>
        <dc:type
           rdf:resource="http://purl.org/dc/dcmitype/StillImage" />
        <dc:title />
      </cc:Work>
    </rdf:RDF>
  </metadata>
  <g
     inkscape:label="Layer 1"
     inkscape:groupmode="layer"
     id="layer1"
     transform="translate(-46.638087,-74.500875)">
    <g
       transform="translate(80.220725,202.03517)"
       id="g999-8" />
    <g
       id="g847"
       transform="translate(-20.136302,-4.8325328)">
      <path
         style="fill:url(#linearGradient864);fill-opacity:1;stroke:none;stroke-width:2.26953578;stroke-miterlimit:4;stroke-dasharray:none;stroke-opacity:1"
         d="m 89.202874,89.333436 a 17.042134,17.042134 0 0 0 -5.098914,0.783932 c -0.127685,0.367853 -2.948244,8.495077 -2.919202,8.473377 3.176095,-6.299651 17.50889,-8.897627 19.323882,3.727425 0.005,0.0342 5.04085,6.1226 5.51026,6.69003 a 17.042134,17.042134 0 0 0 0.22634,-2.6324 17.042134,17.042134 0 0 0 -17.042366,-17.042364 z m -8.018116,9.257309 c -1.314132,7.519745 -1.071608,13.013755 5.60431,18.415415 7.169349,-2.62181 11.806475,-5.57933 13.146485,-14.06168 -5.855232,-4.897935 -10.734858,-7.434406 -18.750795,-4.353735 z m 18.750795,4.353735 c 3.867607,5.9004 -1.049564,19.61215 -12.890687,14.87145 -0.03235,-0.013 -8.341678,1.33751 -8.970512,1.4397 a 17.042134,17.042134 0 0 0 11.12852,4.16202 17.042134,17.042134 0 0 0 16.691486,-13.61415 c -0.10229,-0.11827 -5.963177,-6.89549 -5.958807,-6.85902 z m -13.146485,14.06168 c -7.043705,0.39924 -16.459847,-10.71451 -6.433716,-18.598855 0.02683,-0.0211 2.684375,-7.166141 3.00085,-8.017086 a 17.042134,17.042134 0 0 0 -11.195699,15.985581 17.042134,17.042134 0 0 0 5.32939,12.36565 c 0.120523,-0.0222 9.333013,-1.72074 9.299175,-1.73529 z"
         id="path961"
         inkscape:connector-curvature="0" />
      <text
         inkscape:export-ydpi="300"
         inkscape:export-xdpi="300"
         id="text990"
         y="112.33126"
         x="110.41054"
         style="font-style:normal;font-variant:normal;font-weight:bold;font-stretch:normal;font-size:18.76487923px;line-height:0;font-family:Forte;-inkscape-font-specification:'Forte Bold';font-variant-ligatures:normal;font-variant-caps:normal;font-variant-numeric:normal;font-feature-settings:normal;text-align:start;letter-spacing:0px;word-spacing:0px;writing-mode:lr-tb;text-anchor:start;fill:url(#linearGradient849);fill-opacity:1;stroke:none;stroke-width:0.29320124"
         xml:space="preserve"><tspan
           style="font-style:normal;font-variant:normal;font-weight:bold;font-stretch:normal;font-family:Audiowide;-inkscape-font-specification:'Audiowide Bold';fill:url(#linearGradient849);fill-opacity:1;stroke-width:0.29320124"
           y="112.33126"
           x="110.41054"
           id="tspan988"
           sodipodi:role="line">ThengOS</tspan></text>
    </g>
    <flowRoot
       xml:space="preserve"
       id="flowRoot848"
       style="font-style:normal;font-variant:normal;font-weight:normal;font-stretch:normal;font-size:64px;line-height:0;font-family:'Engravers MT';-inkscape-font-specification:'Engravers MT';font-variant-ligatures:normal;font-variant-caps:normal;font-variant-numeric:normal;font-feature-settings:normal;text-align:start;letter-spacing:0px;word-spacing:0px;writing-mode:lr-tb;text-anchor:start;fill:#000000;fill-opacity:1;stroke:none"><flowRegion
         id="flowRegion850"><rect
           id="rect852"
           width="88.083397"
           height="264.25018"
           x="283.20483"
           y="369.91983" /></flowRegion><flowPara
         id="flowPara854" /></flowRoot>  </g>
</svg>
